<?xml version="1.0" encoding="utf-8"?>
<!-- Generator: Adobe Illustrator 16.0.0, SVG Export Plug-In . SVG Version: 6.00 Build 0)  -->
<!DOCTYPE svg PUBLIC "-//W3C//DTD SVG 1.1//EN" "http://www.w3.org/Graphics/SVG/1.1/DTD/svg11.dtd">
<svg version="1.1" id="Layer_1" xmlns="http://www.w3.org/2000/svg" xmlns:xlink="http://www.w3.org/1999/xlink" x="0px" y="0px"
	 width="258.5px" height="35.5px" viewBox="0 0 258.5 35.5" enable-background="new 0 0 258.5 35.5" xml:space="preserve">
<path fill="#464646" d="M52.819,2.571C49.252-1.126,41.274,0.43,36.018,2.442c-5.254,2.011-7.569,4.272-13.557,6.357
	c-11.934,4.151-7.07,4.345-20.961,8.193c0,0,2.875,2.951,4.439,2.756c2.039-0.254,5.965-2.154,5.965-2.154
	c11.724,1.53,10.625,3.178,13.67,4.957c3.66,2.135,5.555,1.971,6.209,2.445c0.655,0.475-0.938,3.018-0.023,3.925
	c0.305,0.302,1.011,1.259,1.831,2.134c1.036,1.104,2.141,1.776,2.135,2.363c-0.005,0.589-0.954,0.275-2.03,0.383
	c-0.996,0.1-1.878,0.292-1.575,1.467c1.957-0.338,5.828-0.281,7.442-0.213c1.755,0.074,3.302,0.029,3.328,0.252
	c0,0,0.076-1.004-0.846-1.365c-0.679-0.268-0.49,0.084-3.008-0.373c-2.515-0.457-5.524-5.18-5.676-5.639
	c-0.151-0.457,0.879-1.775,1.413-2.178c0.425,0.825-0.193,2.941,1.025,3.323c0.682,0.212,5.251-2.275,5.794-1.988
	c0.542,0.288-2.128,0.413-0.919,2.522c0.255-0.492,0.941-1.297,3.047-2.321c3.235-1.576,5.021-1.088,5.894-0.479
	c-0.04-2.224-2.336-2.037-4.498-1.75c-1.856,0.248-6.084,1.356-8.02,2.034c0.348-1.729-0.703-4.825,1.755-6.481
	c2.455-1.654,6.058-2.852,6.935-6.25c0.612-2.364,0.905-2.903,1.479-2.93c0.961-0.044,4.44,9.671,4.276,10.989
	c0.274-0.295,0.496-0.638,0.657-1.051c0.448-0.951,0.908-3.936,0.736-5.791c-0.081-0.69,0.667-0.92,0.962-1.461
	C55.319,11.691,56.386,6.269,52.819,2.571"/>
<path fill="#464646" d="M120.364,23.514c-1.253,1.334-3.778,2.244-6.363,2.244c-6.082,0-10.261-4.059-10.261-10.254
	c0-5.71,3.61-10.257,10.176-10.257c2.58,0,4.738,0.822,6.049,2.02l-1.566,2.585c-1.189-0.797-2.5-1.336-4.483-1.336
	c-3.694,0-6.482,2.672-6.482,6.988c0,4.148,2.811,6.987,6.875,6.987c1.68,0,3.356-0.537,4.717-1.589L120.364,23.514"/>
<polygon fill="#464646" points="186.725,25.501 184.077,25.501 175.898,5.561 179.623,5.561 185.529,20.307 191.184,5.561 
	194.672,5.561 "/>
<rect x="253.343" y="5.561" fill="#464646" width="3.495" height="19.884"/>
<polygon fill="#464646" points="137.771,5.501 134.705,5.501 126.297,25.445 129.818,25.445 136.152,10.02 142.461,25.445 
	146.182,25.445 "/>
<polygon fill="#464646" points="210.762,5.501 207.697,5.501 199.288,25.445 202.809,25.445 209.145,10.02 215.449,25.445 
	219.172,25.445 "/>
<path fill="#464646" d="M164.568,16.967c1.181-0.63,3.229-2.848,3.229-5.328c0-3.438-1.795-6.138-7.215-6.138
	c-0.568,0-4.943,0.06-6.053,0.06v19.884h3.492V8.828c0.939-0.028,1.73-0.058,2.388-0.058c2.841,0,3.69,1.336,3.69,2.898
	c0,1.179-0.922,2.922-3.951,4.425l5.797,9.354h4.234L164.568,16.967"/>
<path fill="#464646" d="M237.979,16.967c1.183-0.63,3.226-2.848,3.226-5.328c0-3.438-1.789-6.138-7.213-6.138
	c-0.569,0-4.945,0.06-6.056,0.06v19.884h3.498V8.828c0.935-0.028,1.729-0.058,2.385-0.058c2.839,0,3.693,1.336,3.693,2.898
	c0,1.179-0.924,2.922-3.949,4.425l5.795,9.354h4.233L237.979,16.967"/>
<polygon fill="#464646" points="74.827,5.561 78.319,5.561 78.319,22.178 87.271,22.178 87.271,25.445 74.827,25.445 "/>
<rect x="90.983" y="5.561" fill="#464646" width="3.265" height="3.264"/>
</svg>
