2016-04-12 13:39:01 - INFO  --> ================== getList ==================== 
2016-04-12 13:39:01 - INFO  --> API auth fail 
2016-04-12 13:39:01 - INFO  --> 
		{
			"modelName": "Common",
			"calledMethod": "getCargoTypes",
			"methodProperties": {},
			"apiKey": "75747ff912e03fa42bf6ab221b7e305f"
		} 
2017-04-28 15:36:54 - INFO  --> ================== getList ==================== 
2017-04-28 15:36:54 - INFO  --> API key expired 
2017-04-28 15:36:54 - INFO  --> 
		{
			"modelName": "Common",
			"calledMethod": "getCargoTypes",
			"methodProperties": {},
			"apiKey": "2a743bfb820e32d27ef9c41e2a62d2fb"
		} 
