<?xml version="1.0" encoding="UTF-8"?>
<!-- Generator: Adobe Illustrator 16.0.0, SVG Export Plug-In . SVG Version: 6.00 Build 0)  -->
<!DOCTYPE svg PUBLIC "-//W3C//DTD SVG 1.1//EN" "http://www.w3.org/Graphics/SVG/1.1/DTD/svg11.dtd">
<svg version="1.1" id="Layer_1" xmlns="http://www.w3.org/2000/svg" xmlns:xlink="http://www.w3.org/1999/xlink" x="0px" y="0px" width="85px" height="24px" viewBox="-1.167 -0.488 85 24" enable-background="new -1.167 -0.488 85 24" xml:space="preserve">
<g>
	<g>
		<g>
			<g>
				<defs>
					<rect id="SVGID_1_" x="-1" y="-0.345" width="84.832" height="23.857"/>
				</defs>
				<clipPath id="SVGID_2_">
					<use xlink:href="#SVGID_1_" overflow="visible"/>
				</clipPath>
				<g clip-path="url(#SVGID_2_)">
					<g>
						<g>
							<g>
								<g>
									<g>
										<defs>
											<rect id="SVGID_3_" x="-1" y="-0.345" width="84.832" height="23.857"/>
										</defs>
										<clipPath id="SVGID_4_">
											<use xlink:href="#SVGID_3_" overflow="visible"/>
										</clipPath>
										<path clip-path="url(#SVGID_4_)" fill="#FFFFFF" d="M44.862,7.633c-2.235,0-4.058,1.777-4.058,3.961            c0,2.186,1.823,3.962,4.058,3.962c2.242,0,4.063-1.778,4.063-3.962S47.104,7.633,44.862,7.633 M44.862,14.34            c-1.551,0-2.688-1.236-2.688-2.747c0-1.514,1.138-2.745,2.688-2.745c1.554,0,2.693,1.229,2.693,2.745            C47.555,13.108,46.416,14.34,44.862,14.34 M63.823,13.957c-1.39,0.029-2.479-1.017-2.51-2.33s1.012-2.405,2.405-2.436            c0.629-0.015,1.426,0.222,1.881,0.585l0.842-1.297c-0.74-0.575-1.721-0.889-2.761-0.87            c-2.308,0.05-4.212,1.871-4.164,4.057c0.05,2.186,2.034,3.923,4.344,3.869c1.026-0.021,1.933-0.34,2.667-0.975            l-0.824-1.235C65.267,13.699,64.445,13.946,63.823,13.957 M70.408,13.513v-1.056h3.208v-1.763h-3.208V9.641h4.556V7.876            h-6.484v7.401h6.548v-1.765H70.408L70.408,13.513z M33.821,15.307h1.185v-3.154h3.58v-1.034h-3.58V8.911h4.93V7.876            h-6.114L33.821,15.307L33.821,15.307z M18.556,7.615c-2.239,0-4.066,1.781-4.066,3.967c0,2.188,1.827,3.968,4.066,3.968            c2.244,0,4.067-1.78,4.067-3.968C22.623,9.396,20.797,7.615,18.556,7.615 M18.556,14.882c-1.862,0-3.316-1.481-3.316-3.3            c0-1.818,1.455-3.299,3.316-3.299c1.867,0,3.321,1.48,3.321,3.299C21.875,13.403,20.422,14.882,18.556,14.882             M7.805,15.307h0.56v-3.429h3.926v-0.483H8.365V8.335h5.272V7.847H7.803L7.805,15.307L7.805,15.307z M31.456,10.08            c0-1.093-0.928-2.234-2.589-2.234h-4.016v7.46h0.999v-3.022h2.276l1.758,3.022h1.214l-1.846-3.044            C30.605,12.088,31.456,11.084,31.456,10.08 M30.006,10.998c-0.298,0.285-0.734,0.435-1.262,0.435h-2.895V8.699h2.895            c1.144,0,1.653,0.71,1.653,1.383C30.396,10.431,30.258,10.756,30.006,10.998 M57.933,10.202            c0-1.172-0.97-2.356-2.711-2.356h-4.354v7.46h1.555v-2.751h1.959l1.595,2.751h1.797l-1.723-2.85            C57.249,12.147,57.933,11.169,57.933,10.202 M55.105,11.16h-2.68V9.246h2.68c0.89,0,1.207,0.517,1.207,0.957            C56.314,10.643,55.997,11.16,55.105,11.16"/>
									</g>
								</g>
							</g>
							<g>
								<g>
									<g>
										<defs>
											<rect id="SVGID_5_" x="-1" y="-0.345" width="84.832" height="23.857"/>
										</defs>
										<clipPath id="SVGID_6_">
											<use xlink:href="#SVGID_5_" overflow="visible"/>
										</clipPath>
										<g clip-path="url(#SVGID_6_)">
											<g>
												<rect id="SVGID_16_" x="-1" y="31.224" fill="#E52924" width="84.832" height="23.857"/>
											</g>
											<g>
												<g>
													<g>
														<g>
															<defs>
																<rect id="SVGID_7_" x="-1" y="31.224" width="84.832" height="23.857"/>
															</defs>
															<clipPath id="SVGID_8_">
																<use xlink:href="#SVGID_7_" overflow="visible"/>
															</clipPath>
															<rect x="-1" y="31.224" clip-path="url(#SVGID_8_)" fill="#E52924" width="84.832" height="23.857"/>
														</g>
													</g>
													<g>
														<g>
															<g>
																<defs>
																	<rect id="SVGID_9_" x="-1" y="-0.345" width="84.832" height="23.857"/>
																</defs>
																<clipPath id="SVGID_10_">
																	<use xlink:href="#SVGID_9_" overflow="visible"/>
																</clipPath>
																<g clip-path="url(#SVGID_10_)">
																	<g>
																		<g>
																			<g>
																				<g>
																					<defs>
																						<rect id="SVGID_11_" x="-1" y="31.224" width="84.832" height="23.857"/>
																					</defs>
																					<clipPath id="SVGID_13_">
																						<use xlink:href="#SVGID_11_" overflow="visible"/>
																					</clipPath>
																					<g clip-path="url(#SVGID_13_)">
																						<g>
																							<g>
																								<g>
																									<g>
																										<g>
																											<defs>
																												<rect id="SVGID_14_" x="-1" y="31.224" width="84.832" height="23.857"/>
																											</defs>
																											<clipPath id="SVGID_15_">
																												<use xlink:href="#SVGID_14_" overflow="visible"/>
																											</clipPath>
																											<path clip-path="url(#SVGID_15_)" fill="#FFFFFF" d="M44.862,39.199c-2.235,0-4.058,1.778-4.058,3.961                             c0,2.188,1.823,3.963,4.058,3.963c2.242,0,4.063-1.777,4.063-3.963                             C48.924,40.978,47.104,39.199,44.862,39.199 M44.862,45.907c-1.551,0-2.688-1.233-2.688-2.747                             c0-1.513,1.138-2.744,2.688-2.744c1.554,0,2.693,1.231,2.693,2.744                             C47.555,44.678,46.416,45.907,44.862,45.907 M63.823,45.527c-1.39,0.031-2.479-1.019-2.51-2.331                             c-0.03-1.314,1.012-2.404,2.405-2.436c0.629-0.012,1.426,0.222,1.881,0.585l0.842-1.297                             c-0.74-0.571-1.721-0.888-2.761-0.866c-2.308,0.051-4.212,1.868-4.164,4.058                             c0.05,2.185,2.034,3.92,4.344,3.866c1.026-0.02,1.933-0.34,2.667-0.973l-0.824-1.237                             C65.267,45.267,64.445,45.515,63.823,45.527 M70.408,45.08v-1.053h3.208v-1.765h-3.208v-1.054h4.556                             v-1.766h-6.484v7.401h6.548v-1.767L70.408,45.08L70.408,45.08z M33.821,46.874h1.185v-3.153h3.58v-1.032                             h-3.58v-2.208h4.93v-1.033h-6.114L33.821,46.874L33.821,46.874z M18.556,39.184                             c-2.239,0-4.066,1.782-4.066,3.967c0,2.189,1.827,3.967,4.066,3.967c2.244,0,4.067-1.779,4.067-3.967                             C22.623,40.966,20.797,39.184,18.556,39.184 M18.556,46.451c-1.862,0-3.316-1.481-3.316-3.301                             c0-1.817,1.455-3.299,3.316-3.299c1.867,0,3.321,1.483,3.321,3.299                             C21.875,44.97,20.422,46.451,18.556,46.451 M7.805,46.874h0.56v-3.427h3.926v-0.483H8.365v-3.06h5.272                             v-0.487H7.803L7.805,46.874L7.805,46.874z M31.456,41.648c0-1.093-0.928-2.232-2.589-2.232h-4.016v7.459                             h0.999v-3.021h2.276l1.758,3.021h1.214l-1.846-3.042C30.605,43.656,31.456,42.652,31.456,41.648                              M30.006,42.568c-0.298,0.284-0.734,0.434-1.262,0.434h-2.895v-2.735h2.895                             c1.144,0,1.653,0.712,1.653,1.382C30.396,41.999,30.258,42.323,30.006,42.568 M57.933,41.772                             c0-1.173-0.97-2.356-2.711-2.356h-4.354v7.459h1.555v-2.749h1.959l1.595,2.749h1.797l-1.723-2.847                             C57.249,43.715,57.933,42.739,57.933,41.772 M55.105,42.729h-2.68v-1.914h2.68                             c0.89,0,1.207,0.519,1.207,0.957C56.314,42.213,55.997,42.729,55.105,42.729"/>
																										</g>
																									</g>
																								</g>
																							</g>
																						</g>
																					</g>
																					
																						<rect id="SVGID_12_" x="-1" y="31.224" clip-path="url(#SVGID_13_)" fill="#D12746" width="84.832" height="23.857"/>
																					<g clip-path="url(#SVGID_13_)">
																						<g>
																							<g>
																								<g>
																									<defs>
																										<rect id="SVGID_17_" x="-1" y="31.224" width="84.832" height="23.857"/>
																									</defs>
																									<clipPath id="SVGID_18_">
																										<use xlink:href="#SVGID_17_" overflow="visible"/>
																									</clipPath>
																								</g>
																							</g>
																						</g>
																					</g>
																				</g>
																			</g>
																		</g>
																	</g>
																</g>
															</g>
														</g>
													</g>
												</g>
											</g>
										</g>
									</g>
								</g>
							</g>
							<rect x="-12.242" y="76.367" fill="none" width="107.318" height="30.18"/>
						</g>
					</g>
				</g>
			</g>
		</g>
	</g>
</g>
<rect x="11" y="34.523" fill="none" width="83" height="23.716"/>
</svg>