<?xml version="1.0" encoding="utf-8"?>
<!-- Generator: Adobe Illustrator 16.0.0, SVG Export Plug-In . SVG Version: 6.00 Build 0)  -->
<!DOCTYPE svg PUBLIC "-//W3C//DTD SVG 1.1//EN" "http://www.w3.org/Graphics/SVG/1.1/DTD/svg11.dtd">
<svg version="1.1" id="Layer_1" xmlns="http://www.w3.org/2000/svg" xmlns:xlink="http://www.w3.org/1999/xlink" x="0px" y="0px"
	 width="268px" height="48.167px" viewBox="0 0 268 48.167" enable-background="new 0 0 268 48.167" xml:space="preserve">
<path fill="#464646" d="M70.095,3.057c-4.873-5.05-15.769-2.924-22.948-0.178C39.97,5.626,36.809,8.715,28.63,11.563
	C12.33,17.232,18.974,17.497,0,22.751c0,0,3.927,4.032,6.064,3.766c2.785-0.348,8.147-2.942,8.147-2.942
	c16.013,2.088,14.513,4.34,18.671,6.771c4.999,2.913,7.587,2.688,8.48,3.34c0.895,0.647-1.282,4.121-0.032,5.36
	c0.417,0.41,1.381,1.72,2.501,2.912c1.415,1.508,2.924,2.429,2.916,3.229c-0.008,0.806-1.303,0.375-2.773,0.522
	c-1.36,0.136-2.565,0.398-2.152,2.002c2.673-0.461,7.96-0.385,10.166-0.289c2.398,0.103,4.51,0.041,4.545,0.345
	c0,0,0.103-1.371-1.155-1.865c-0.928-0.364-0.669,0.113-4.109-0.512c-3.434-0.623-7.545-7.072-7.751-7.699
	c-0.207-0.623,1.201-2.428,1.929-2.978c0.581,1.127-0.264,4.021,1.401,4.541c0.931,0.289,7.172-3.108,7.914-2.717
	c0.74,0.394-2.907,0.563-1.255,3.445c0.348-0.674,1.285-1.771,4.162-3.172c4.418-2.152,6.857-1.484,8.05-0.654
	c-0.054-3.037-3.19-2.783-6.143-2.389c-2.536,0.336-8.311,1.852-10.954,2.777c0.475-2.361-0.96-6.59,2.397-8.854
	c3.354-2.261,8.274-3.895,9.472-8.537c0.835-3.229,1.236-3.966,2.019-4.001c1.313-0.06,6.064,13.212,5.84,15.011
	c0.375-0.404,0.678-0.873,0.897-1.437c0.612-1.298,1.239-5.375,1.004-7.909c-0.11-0.943,0.912-1.257,1.314-1.995
	C73.509,15.513,74.966,8.107,70.095,3.057"/>
<path fill="#464646" d="M142.863,32.177c-1.252,1.336-3.777,2.246-6.362,2.246c-6.082,0-10.261-4.06-10.261-10.255
	c0-5.709,3.61-10.256,10.176-10.256c2.58,0,4.738,0.822,6.049,2.02l-1.566,2.585c-1.188-0.797-2.5-1.337-4.482-1.337
	c-3.694,0-6.482,2.672-6.482,6.988c0,4.15,2.811,6.988,6.875,6.988c1.68,0,3.356-0.537,4.717-1.589L142.863,32.177"/>
<polygon fill="#464646" points="203.225,34.166 200.577,34.166 192.398,14.227 196.123,14.227 202.029,28.971 207.684,14.227 
	211.172,14.227 "/>
<rect x="263.844" y="14.227" fill="#464646" width="3.494" height="19.884"/>
<polygon fill="#464646" points="158.271,14.166 155.205,14.166 146.797,34.111 150.318,34.111 156.652,18.686 162.961,34.111 
	166.682,34.111 "/>
<polygon fill="#464646" points="225.262,14.166 222.197,14.166 213.788,34.111 217.309,34.111 223.645,18.686 229.949,34.111 
	233.672,34.111 "/>
<path fill="#464646" d="M183.068,25.632c1.181-0.631,3.229-2.848,3.229-5.327c0-3.438-1.795-6.139-7.215-6.139
	c-0.568,0-4.943,0.061-6.053,0.061v19.884h3.492V17.493c0.939-0.028,1.73-0.058,2.388-0.058c2.841,0,3.69,1.336,3.69,2.897
	c0,1.179-0.922,2.923-3.951,4.425l5.797,9.353h4.234L183.068,25.632"/>
<path fill="#464646" d="M250.479,25.632c1.183-0.631,3.226-2.848,3.226-5.327c0-3.438-1.789-6.139-7.213-6.139
	c-0.569,0-4.945,0.061-6.056,0.061v19.884h3.498V17.493c0.935-0.028,1.729-0.058,2.385-0.058c2.839,0,3.693,1.336,3.693,2.897
	c0,1.179-0.924,2.923-3.949,4.425l5.795,9.353h4.233L250.479,25.632"/>
<polygon fill="#464646" points="99.327,14.227 102.819,14.227 102.819,30.843 111.771,30.843 111.771,34.111 99.327,34.111 "/>
<rect x="115.483" y="14.227" fill="#464646" width="3.265" height="3.264"/>
</svg>
